Cleanet for Mass Cytometry
…
We start by loading some example data. These 10,000 events come from
the whole blood of a healthy donor, profiled by CyTOF at the University
of Pennsylvania, using the 30-parameter MDIPA panel. There are also two
DNA intercalator channels and one channel providing cell type
annotations. Channels have been renamed for convenience.

path <- system.file("extdata", "df_mdipa.csv", package="Cleanet")
df_mdipa <- read_csv(path, col_types=cols())
print(df_mdipa)
#> # A tibble: 10,000 × 33
#>      CD45 CD196 CD123  CD19   CD4   CD8a CD11c  CD16 CD45RO  CD45RA CD161 CD194
#>     <dbl> <dbl> <dbl> <dbl> <dbl>  <dbl> <dbl> <dbl>  <dbl>   <dbl> <dbl> <dbl>
#>  1   74.9  14.4 4.50   1.99  1.36  11.0   16.8  700.  20.0    2.94   2.23 19.7 
#>  2   94.1  25.4 2.19   3.29 27.6    3.88  15.0  878.  86.5   13.2    5.47 10.3 
#>  3   60.7  24.0 2.73   1.93  9.22   9.34  18.2  661.  29.5   12.0    4.05 27.5 
#>  4  648.    0   1.02  12.2  22.5   29.0   37.7  187.   7.67 284.    41.0   5.85
#>  5   30.7  13.3 0.191  6.01  7.94  21.3   16.0  492.  15.8    3.74   2.12  6.78
#>  6  135.   26.3 7.19   3.73  7.24  10.7   38.5  628.  77.6    4.18   0    25.5 
#>  7   46.9  28.1 5.01   0     2.51   3.81  23.9  774.  36.6    0.272  5.15 21.6 
#>  8 1508.   17.6 2.75   5.57  7.00 542.    28.8  157. 120.   226.    68.7  85.8 
#>  9   99.2  31.5 7.65   3.54  5.29  15.6   28.4  753.  26.0    1.40  10.4  14.8 
#> 10   64.7  45.0 7.31   5.79  7.88  25.4   21.8  760.  37.5    3.87   0    11.4 
#> # ℹ 9,990 more rows
#> # ℹ 21 more variables: CD25 <dbl>, CD27 <dbl>, CD57 <dbl>, CD183 <dbl>,
#> #   CD185 <dbl>, CD28 <dbl>, CD38 <dbl>, CD56 <dbl>, TCRgd <dbl>, CD294 <dbl>,
#> #   CD197 <dbl>, CD14 <dbl>, CD3 <dbl>, CD20 <dbl>, CD66b <dbl>,
#> #   `HLA-DR` <dbl>, IgD <dbl>, CD127 <dbl>, DNA1 <dbl>, DNA2 <dbl>, label <chr>
…
Neutrophils account for ~50% of singlets in whole blood.
Unsurprisingly, then, they are also involved in most of the multiplets.
To generalize this intuition, we can compute expected proportions of
doublet types, by multiplying the frequencies of the components. The
function compare_doublets_exp_obs does this and returns the
proportions of expected and observed doublets as a data frame.

df_exp_obs <- compare_doublets_exp_obs(doublet_clas, singlet_clas, cleanet_res)
#> Joining with `by = join_by(Type)`

arrange(df_exp_obs, -Expected)
#> # A tibble: 43 × 3
#>    Type                  Expected Observed
#>    <chr>                    <dbl>    <dbl>
#>  1 Neutrophil_Neutrophil   0.378   0.422  
#>  2 Neutrophil_T cell       0.274   0.241  
#>  3 NK cell_Neutrophil      0.0719  0.0730 
#>  4 Monocyte_Neutrophil     0.0548  0.0547 
#>  5 T cell_T cell           0.0497  0.0438 
#>  6 B cell_Neutrophil       0.0396  0.0420 
#>  7 NK cell_T cell          0.0261  0.0128 
#>  8 Monocyte_T cell         0.0198  0.0146 
#>  9 Eosinophil_Neutrophil   0.0166  0.0109 
#> 10 B cell_T cell           0.0143  0.00547
#> # ℹ 33 more rows
…
